{
  "commitMessage": "manual vault backup: {{hostname}} {{date}}",
  "autoCommitMessage": "auto vault backup: {{hostname}} {{date}}",
  "commitDateFormat": "YYYY-MM-DD HH:mm:ss",
  "autoSaveInterval": 10,
  "autoPullInterval": 10,
  "autoPullOnBoot": true,
  "disablePush": false,
  "pullBeforePush": true,
  "disablePopups": false,
  "listChangedFilesInMessageBody": false,
  "showStatusBar": true,
  "updateSubmodules": false,
  "syncMethod": "merge",
  "gitPath": "",
  "customMessageOnAutoBackup": false,
  "autoBackupAfterFileChange": true,
  "treeStructure": false,
  "refreshSourceControl": true,
  "basePath": ""
}